Correlation Graph, Community Detection, and Graph Manipulation
…
swiss.cor <- swiss %>%    # t() for matrix transpose
  t() %>% correlate() %>%    # correlate() is equivalent to cor() but                                                put NA as its diagonal entry and different class
  shave(upper = TRUE) %>%            # Shave the data frame to lower triangular matrix
  stretch(na.rm = TRUE) %>%           
  filter(r >= 0.99)                 

## 
## Correlation method: 'pearson'
## Missing treated using: 'pairwise.complete.obs'

swiss.cor

## # A tibble: 64 x 3
##    x            y                r
##    <chr>        <chr>        <dbl>
##  1 Courtelary   Le Locle     0.991
##  2 Delemont     Franches-Mnt 0.996
##  3 Delemont     Sarine       0.994
##  4 Franches-Mnt Sarine       0.996
##  5 Neuveville   Grandson     0.991
##  6 Neuveville   Val de Ruz   0.992
##  7 Porrentruy   Sarine       0.992
##  8 Broye        Glane        0.996
##  9 Broye        Veveyse      0.996
## 10 Broye        Monthey      0.995
## # ... with 54 more rows
…
How about the negative correlation?

swiss.cor2 <- swiss %>%    
  t() %>% correlate() %>%    
  shave(upper = TRUE) %>%           
  stretch(na.rm = TRUE) %>%           
  filter(r < 0)                 

## 
## Correlation method: 'pearson'
## Missing treated using: 'pairwise.complete.obs'

swiss.cor

## # A tibble: 64 x 3
##    x            y                r
##    <chr>        <chr>        <dbl>
##  1 Courtelary   Le Locle     0.991
##  2 Delemont     Franches-Mnt 0.996
##  3 Delemont     Sarine       0.994
##  4 Franches-Mnt Sarine       0.996
##  5 Neuveville   Grandson     0.991
##  6 Neuveville   Val de Ruz   0.992
##  7 Porrentruy   Sarine       0.992
##  8 Broye        Glane        0.996
##  9 Broye        Veveyse      0.996
## 10 Broye        Monthey      0.995
## # ... with 54 more rows
…
